0 0.8125 0.6234375 0.11171875 0.1171875 0.86815625 0.5766944444444444 2 0.8223203124999999 0.5976250000000001 2 0.7839375000000001 0.5645277777777777 2 0.756421875 0.6113888888888888 2 0.7590625 0.6466527777777777 2 0.7676796875 0.6785694444444444 2 0.8048125 0.682 2
2 0.7921875 0.37265625 0.11328125 0.12109375 0.8492734375 0.3759583333333333 2 0.7997109375 0.37463888888888885 2 0.780390625 0.433 2 0.7383124999999999 0.3966805555555556 2 0.735859375 0.3615694444444444 2 0.7439843749999999 0.3353472222222222 2 0.7686640625 0.3116944444444444 2
3 0.6703125 0.27890625 0.0484375 0.1 0.6911171875 0.32915277777777774 2 0.68475 0.30190277777777774 2 0.6500859375 0.30056944444444444 2 0.64596875 0.2603472222222222 2 0.6622265625 0.228875 2 0.6941484375 0.24990277777777775 2 0 0 0
1 0.646875 0.4390625 0.03671875 0.10234375 0.66571875 0.49018055555555556 2 0.6542343749999999 0.45569444444444446 2 0.662875 0.3979444444444444 2 0.641953125 0.3879444444444444 2 0.6286875000000001 0.41547222222222213 2 0.6307343750000001 0.47134722222222225 2 0 0 0