3 0.8546875 0.48125 0.0578125 0.08359375 0.826 0.5084583333333332 2 0.8410703125 0.5026666666666666 2 0.869015625 0.43952777777777774 2 0.8792109375000001 0.46623611111111113 2 0.8840937500000001 0.4913333333333333 2 0.867703125 0.5227638888888888 2 0 0 0
2 0.571875 0.69296875 0.10625 0.09765625 0.5182734375 0.6864027777777777 2 0.564953125 0.6919305555555555 2 0.581796875 0.6443472222222222 2 0.619578125 0.6538888888888889 2 0.624734375 0.6858055555555554 2 0.623765625 0.7085138888888889 2 0.597859375 0.741625 2
0 0.6265625 0.44453125 0.09453125 0.11328125 0.5795859375 0.49225 2 0.610171875 0.4540972222222222 2 0.6436015625 0.5013333333333333 2 0.6738515625 0.4615833333333333 2 0.67371875 0.4272083333333333 2 0.6711484375000001 0.403625 2 0.6415078125 0.38825000000000004 2
1 0.81171875 0.34296875 0.065625 0.0765625 0.7787109375 0.37194444444444447 2 0.7978046875 0.3574305555555556 2 0.8308828125 0.38104166666666667 2 0.844625 0.34951388888888885 2 0.8254531249999999 0.3047083333333333 2 0.7940625 0.3108472222222222 2 0 0 0