1 0.5390625 0.4609375 0.0578125 0.084375 0.5681484375 0.48209722222222223 2 0.54628125 0.4681805555555555 2 0.5330625 0.418625 2 0.5149296875 0.4364166666666667 2 0.510546875 0.4717083333333333 2 0.5318828124999999 0.5027638888888888 2 0 0 0
3 0.60390625 0.32890625 0.05625 0.0640625 0.6318046875000001 0.33844444444444444 2 0.6112265625 0.3315555555555555 2 0.5933203125000001 0.3607222222222223 2 0.5758671875 0.3366388888888888 2 0.5797109375 0.30427777777777776 2 0.6082421874999999 0.2964861111111111 2 0 0 0
0 0.809375 0.62578125 0.11015625 0.11953125 0.8643750000000001 0.5753055555555556 2 0.8218515625 0.5936111111111111 2 0.7834531250000001 0.5657916666666666 2 0.75453125 0.6114444444444445 2 0.7546953125 0.6442222222222221 2 0.767140625 0.6748194444444444 2 0.8044140625 0.6856527777777778 2
2 0.78984375 0.3671875 0.10078125 0.1265625 0.8398671875 0.3799722222222222 2 0.7944296875 0.36981944444444437 2 0.7789765625 0.4305833333333333 2 0.7426484375 0.39931944444444445 2 0.7392734375 0.3593055555555555 2 0.7401953125 0.3322222222222222 2 0.767875 0.3038333333333333 2