3 0.86484375 0.48359375 0.065625 0.08125 0.83215625 0.5092361111111111 2 0.8501796875000001 0.5019722222222222 2 0.865984375 0.44293055555555555 2 0.886484375 0.4532083333333333 2 0.8975 0.4803055555555555 2 0.8686328124999999 0.5242083333333334 2 0 0 0
2 0.5796875 0.69140625 0.08984375 0.0984375 0.535078125 0.6848888888888889 2 0.5761796875 0.6893888888888888 2 0.5820546875 0.642125 2 0.6148515625 0.6512916666666666 2 0.6248671875 0.6864861111111111 2 0.623234375 0.7080416666666667 2 0.59721875 0.7405555555555556 2
0 0.62890625 0.44609375 0.09765625 0.11015625 0.5803046875 0.4856527777777778 2 0.622546875 0.4498888888888889 2 0.64375 0.5009444444444444 2 0.6776796875 0.45981944444444445 2 0.6739765625 0.4273194444444444 2 0.6676328125000001 0.4056388888888889 2 0.6381640625 0.3905833333333334 2
1 0.80546875 0.3515625 0.07109375 0.084375 0.7703671875 0.38108333333333333 2 0.791578125 0.3623472222222222 2 0.8258125 0.39406944444444447 2 0.84109375 0.3503194444444444 2 0.82453125 0.3094027777777778 2 0.793671875 0.3113194444444444 2 0 0 0