2 0.8109375 0.62421875 0.11328125 0.1171875 0.8675859375 0.5742777777777778 2 0.8214765625 0.6031805555555556 2 0.80475 0.6827916666666667 2 0.7656953125 0.680125 2 0.7544140625 0.6489722222222222 2 0.7542890625 0.6161111111111112 2 0.784578125 0.5652222222222222 2
1 0.671875 0.2765625 0.04921875 0.09296875 0.694609375 0.32340277777777776 2 0.688421875 0.29441666666666666 2 0.6963046875 0.24366666666666664 2 0.6634218749999999 0.23040277777777773 2 0.6468828125 0.2609444444444444 2 0.649390625 0.30093055555555553 2 0 0 0
3 0.646875 0.4375 0.0390625 0.103125 0.6662343749999999 0.4887916666666666 2 0.65509375 0.45948611111111104 2 0.63478125 0.4677777777777778 2 0.6270234375 0.41244444444444445 2 0.640796875 0.3857777777777777 2 0.6614375 0.39725 2 0 0 0
0 0.784375 0.3703125 0.11015625 0.12890625 0.839828125 0.3890138888888888 2 0.8001171875 0.36275 2 0.7649609374999999 0.30619444444444444 2 0.7369687500000001 0.33329166666666665 2 0.7293046875 0.35748611111111106 2 0.739328125 0.39658333333333334 2 0.7794375 0.43516666666666665 2