1 0.85703125 0.48515625 0.0484375 0.065625 0.83265625 0.5050138888888889 2 0.8450234375000001 0.5026527777777778 2 0.8635390624999999 0.5178472222222222 2 0.881453125 0.48270833333333335 2 0.8790156250000001 0.45988888888888885 2 0.8647656250000001 0.45187499999999997 2 0 0 0
3 0.80546875 0.353125 0.0625 0.0625 0.7747578125000001 0.3735833333333333 2 0.7902265625 0.37004166666666666 2 0.797203125 0.3234722222222222 2 0.821671875 0.32179166666666664 2 0.8369140625 0.3475138888888889 2 0.8204765625 0.3846666666666666 2 0 0 0
0 0.5828125 0.6890625 0.08046875 0.0859375 0.5422734375 0.6836944444444444 2 0.5649765625 0.6921527777777777 2 0.5904765624999999 0.7321666666666665 2 0.6227578125 0.7097777777777778 2 0.6205078125 0.6853194444444444 2 0.6152265625 0.6578055555555555 2 0.5829765625000001 0.6463472222222222 2
2 0.6203125 0.44296875 0.1046875 0.1015625 0.5680234375000001 0.47390277777777773 2 0.61909375 0.43970833333333326 2 0.63453125 0.39193055555555556 2 0.66634375 0.4026527777777778 2 0.6727890624999999 0.43019444444444443 2 0.669359375 0.46308333333333335 2 0.641859375 0.49330555555555555 2