0 0.78828125 0.36953125 0.09609375 0.11015625 0.8361875 0.3781805555555556 2 0.7976875 0.37137499999999996 2 0.769671875 0.31447222222222215 2 0.74040625 0.336875 2 0.742328125 0.36393055555555553 2 0.745375 0.3960416666666666 2 0.778609375 0.42477777777777775 2
1 0.6265625 0.4046875 0.0453125 0.05859375 0.649640625 0.42440277777777774 2 0.6365624999999999 0.41624999999999995 2 0.6364609375 0.3751388888888889 2 0.61471875 0.38479166666666664 2 0.604 0.4093472222222222 2 0.61053125 0.4335416666666666 2 0 0 0
3 0.69140625 0.659375 0.04140625 0.06796875 0.712203125 0.6492222222222221 2 0.7010703125 0.6539722222222222 2 0.6929375 0.6933333333333332 2 0.672984375 0.6771527777777777 2 0.6705859375000001 0.6501249999999998 2 0.6831171875 0.6250416666666666 2 0 0 0
2 0.80703125 0.6203125 0.08046875 0.11640625 0.84746875 0.5624027777777777 2 0.81528125 0.5951111111111111 2 0.8053437499999999 0.6759305555555556 2 0.7756406250000001 0.67875 2 0.768140625 0.6513611111111111 2 0.7666171875 0.6207222222222222 2 0.7824453124999999 0.5690277777777777 2