2 0.87421875 0.6390625 0.05 0.1578125 0.8775703125 0.5600416666666667 2 0.8805937500000001 0.6162361111111111 2 0.8992812499999999 0.6822083333333333 2 0.8796875 0.7175416666666666 2 0.8639531249999999 0.7127916666666667 2 0.849484375 0.6863888888888888 2 0.8530859375000001 0.6233888888888888 2
0 0.73125 0.4359375 0.06796875 0.13125 0.7654140625 0.3702361111111111 2 0.74228125 0.40533333333333327 2 0.7034296875 0.42598611111111107 2 0.697625 0.4645138888888888 2 0.7088828125 0.48381944444444447 2 0.727171875 0.5018611111111111 2 0.757921875 0.46019444444444435 2
3 0.5921875 0.71171875 0.05078125 0.046875 0.6178203124999999 0.7344722222222223 2 0.60734375 0.7275555555555556 2 0.573078125 0.7348888888888888 2 0.566765625 0.7100138888888888 2 0.58490625 0.6878888888888888 2 0.6086875 0.7035694444444445 2 0 0 0
1 0.50546875 0.45546875 0.05703125 0.0671875 0.5339609375000001 0.4543611111111111 2 0.51359375 0.4562222222222222 2 0.503515625 0.4220555555555555 2 0.47659375 0.43583333333333335 2 0.478109375 0.4614027777777777 2 0.48939062499999997 0.4890694444444444 2 0 0 0