0 0.52421875 0.490625 0.0765625 0.125 0.48621875000000003 0.4280555555555555 2 0.5116328125 0.4882083333333333 2 0.522078125 0.5527083333333332 2 0.546546875 0.5516527777777778 2 0.5553359375 0.5293472222222222 2 0.5629609375 0.49191666666666667 2 0.5326328124999999 0.4466111111111111 2
2 0.6578125 0.2015625 0.11796875 0.11796875 0.5991328125 0.22019444444444441 2 0.6519921875 0.20988888888888887 2 0.683484375 0.14266666666666666 2 0.7098984374999999 0.17186111111111108 2 0.7167265625 0.20163888888888887 2 0.7107187500000001 0.2342222222222222 2 0.67471875 0.2603472222222222 2
3 0.73046875 0.34375 0.040625 0.0734375 0.709984375 0.319125 2 0.7212421875 0.3317777777777778 2 0.7363984375 0.307 2 0.7509609375 0.33954166666666663 2 0.7487890625 0.37181944444444437 2 0.7263046875 0.3806111111111111 2 0 0 0
1 0.84140625 0.45234375 0.046875 0.06953125 0.8179140625000001 0.4565833333333333 2 0.836640625 0.4584027777777778 2 0.8529140625 0.48659722222222224 2 0.8645078125 0.46080555555555547 2 0.8606328124999999 0.437625 2 0.8538828125 0.41738888888888886 2 0 0 0