1 0.11171875 0.48046875 0.07265625 0.078125 0.148296875 0.44383333333333336 2 0.12151562499999999 0.4653333333333333 2 0.09159375 0.44118055555555546 2 0.0758203125 0.4783333333333332 2 0.0843515625 0.5055694444444444 2 0.1083046875 0.5191805555555555 2 0 0 0
3 0.125 0.63046875 0.06484375 0.06015625 0.1578203125 0.6002916666666666 2 0.1472578125 0.6123888888888889 2 0.13621875 0.6597777777777778 2 0.110109375 0.6607083333333332 2 0.0928984375 0.6389166666666666 2 0.10413281249999999 0.6091805555555555 2 0 0 0
0 0.31171875 0.26640625 0.10703125 0.11171875 0.3651484375 0.25352777777777774 2 0.3234296875 0.2617777777777778 2 0.2771953125 0.21070833333333333 2 0.2578203125 0.26779166666666665 2 0.2584296875 0.2913472222222222 2 0.27140624999999996 0.3205694444444444 2 0.308296875 0.32276388888888885 2
2 0.3921875 0.471875 0.0828125 0.10859375 0.4333984375 0.4215 2 0.4085546875 0.45920833333333333 2 0.396265625 0.5229166666666666 2 0.3648359375 0.5259444444444444 2 0.35428125 0.50625 2 0.3502421875 0.46758333333333335 2 0.3838828125 0.4170694444444445 2